\relax 
\@writefile{toc}{\contentsline {section}{\numberline {1}Overview}{1}}
\@writefile{toc}{\contentsline {section}{\numberline {2}Simulation}{2}}
\@writefile{toc}{\contentsline {section}{\numberline {3}Results}{3}}
\@writefile{toc}{\contentsline {subsection}{\numberline {3.1}Time-Delayed XOR using the First Update Rule}{3}}
\@writefile{toc}{\contentsline {subsection}{\numberline {3.2}Time-Delayed XOR using the Second Update Rule}{4}}
\@writefile{toc}{\contentsline {subsection}{\numberline {3.3}Time-Delayed XOR using the First Update Rule, with Unit Rewards}{5}}
\@writefile{toc}{\contentsline {subsection}{\numberline {3.4}Learning a one-hot encoding for the XOR problem trial types.}{5}}
